{
  "116.62.16.32": {
    "ip": "116.62.16.32",
    "count": "95581"
  },
  "119.90.53.137": {
    "ip": "119.90.53.137",
    "count": "554280"
  },
  "190.85.54.158": {
    "ip": "190.85.54.158",
    "count": "459728"
  },
  "193.46.255.111": {
    "ip": "193.46.255.111",
    "count": "109047"
  },
  "195.101.222.104": {
    "ip": "195.101.222.104",
    "count": "27375"
  },
  "195.154.27.10": {
    "ip": "195.154.27.10",
    "count": "38462"
  },
  "216.245.203.98": {
    "ip": "216.245.203.98",
    "count": "2948460"
  },
  "51.159.54.193": {
    "ip": "51.159.54.193",
    "count": "27819"
  },
  "84.242.124.74": {
    "ip": "84.242.124.74",
    "count": "181544"
  },
  "92.223.103.137": {
    "ip": "92.223.103.137",
    "count": "207584"
  }
}